[gd_scene load_steps=2 format=3 uid="uid://b3n47wrunvwaq"]

[ext_resource type="Script" path="res://unit_manager.gd" id="1_h74b4"]

[node name="UnitManager" type="Node"]
script = ExtResource("1_h74b4")
